Exploratory Data Analysis
…
I used pivot_longer here to recombine the Civil War values to one column and return State to it’s in own. I also used pivot_longer to recombine TrumpWin into one column and return State to a separate one.

##Joining/Merging

FullData <- full_join(TeenPregnancy1, Election161, by = c("State"))
FullData[c(4, 1, 2, 3, 5, 6, 7, 8, 9, 10)]

## # A tibble: 50 x 10
##    State Church  Teen CivilWar Income    HS    BA   Adv Dem.Rep TrumpWin
##    <fct>  <int> <int> <chr>     <int> <dbl> <dbl> <dbl>   <int> <chr>   
##  1 AK        26    64 O         72515  92.1  28    10.1     -17 Win     
##  2 AL        46    62 C         43623  84.3  23.5   8.7     -17 Win     
##  3 AR        45    73 C         41371  84.8  21.1   7.5      -7 Win     
##  4 AZ        33    60 O         50255  86    27.5  10.2      -1 Win     
##  5 CA        28    59 U         61818  81.8  31.4  11.6      16 Lose    
##  6 CO        25    50 O         60629  90.7  38.1  14        -1 Lose    
##  7 CT        25    44 U         70331  89.9  37.6  16.6      11 Lose    
##  8 DE        35    67 U         60509  88.4  30    12.2       6 Lose    
##  9 FL        32    60 C         47507  86.9  27.3   9.8       1 Win     
## 10 GA        39    64 C         49620  85.4  28.8  10.7      -4 Win     
## # … with 40 more rows
…
FullData %>% filter(TrumpWin == "Lose" & Dem.Rep == max(Dem.Rep))

## # A tibble: 1 x 10
##   Church  Teen CivilWar State Income    HS    BA   Adv Dem.Rep TrumpWin
##    <int> <int> <chr>    <fct>  <int> <dbl> <dbl> <dbl>   <int> <chr>   
## 1     17    42 U        VT     55176  91.8    36  14.3      22 Lose

I wanted to filter my data to look at the extremes first so I looked at the state with Trump Winning and minimum Dem.Rep lean. The rate of teen pregnancy is 56 per 1000 teenage girls in this state, Wyoming. On the otherhand, the state with the highest Dem.Rep lean that did not vote for Trump was Vermont with a 42 per 1000 teenage girls teen pregnancy rate.

FullData %>% arrange(desc(Teen))

## # A tibble: 50 x 10
##    Church  Teen CivilWar State Income    HS    BA   Adv Dem.Rep TrumpWin
##     <int> <int> <chr>    <fct>  <int> <dbl> <dbl> <dbl>   <int> <chr>   
##  1     36    80 O        NM     44963  84.2  26.3  11.5      12 Lose    
##  2     47    76 C        MS     39665  82.3  20.7   7.7      -5 Win     
##  3     45    73 C        AR     41371  84.8  21.1   7.5      -7 Win     
##  4     39    73 C        TX     53207  81.9  27.6   9.4      -6 Win     
##  5     46    69 C        LA     45047  83.4  22.5   7.7      -2 Win     
##  6     39    69 B        OK     46879  86.9  24.1   8       -13 Win     
##  7     27    68 O        NV     51847  85.1  23     7.9      -4 Lose    
##  8     35    67 U        DE     60509  88.4  30    12.2       6 Lose    
##  9     25    65 O        HI     69515  91    30.8  10.5      21 Lose    
## 10     42    65 C        SC     45483  85.6  25.8   9.3     -13 Win     
## # … with 40 more rows

FullData %>% arrange(Church)

## # A tibble: 50 x 10
##    Church  Teen CivilWar State Income    HS    BA   Adv Dem.Rep TrumpWin
##     <int> <int> <chr>    <fct>  <int> <dbl> <dbl> <dbl>   <int> <chr>   
##  1     17    42 U        VT     55176  91.8  36    14.3      22 Lose    
##  2     20    37 U        ME     49331  91.6  29    10.3      -4 Lose    
##  3     20    28 U        NH     66779  92.3  34.9  13        -9 Lose    
##  4     22    37 U        MA     68563  89.8  40.5  17.7      19 Lose    
##  5     24    47 U        OR     51243  89.8  30.8  11.5       6 Lose    
##  6     24    49 O        WA     61062  90.4  32.9  12         9 Lose    
##  7     25    50 O        CO     60629  90.7  38.1  14        -1 Lose    
##  8     25    44 U        CT     70331  89.9  37.6  16.6      11 Lose    
##  9     25    65 O        HI     69515  91    30.8  10.5      21 Lose    
## 10     26    64 O        AK     72515  92.1  28    10.1     -17 Win     
## # … with 40 more rows

For arranging my data, I first looked at the rates of Teen pregnancy by state from highest to lowest to see if I could see any general trends in whether or not Trump Won that state. For the most part, it seems random. Interestingly though, when arranging by the rate at which people attend church, the likelikhood of Trump winning increases with increasing churchgoers.

FullData %>% select(State, CivilWar, TrumpWin)

## # A tibble: 50 x 3
##    State CivilWar TrumpWin
##    <fct> <chr>    <chr>   
##  1 AK    O        Win     
##  2 AL    C        Win     
##  3 AR    C        Win     
##  4 AZ    O        Win     
##  5 CA    U        Lose    
##  6 CO    O        Lose    
##  7 CT    U        Lose    
##  8 DE    U        Lose    
##  9 FL    C        Win     
## 10 GA    C        Win     
## # … with 40 more rows

FullData <- FullData %>% rename(TeenPreg = Teen)
FullData %>% select(State, TeenPreg, TrumpWin) %>% arrange(TeenPreg)

## # A tibble: 50 x 3
##    State TeenPreg TrumpWin
##    <fct>    <int> <chr>   
##  1 NH          28 Lose    
##  2 MN          36 Lose    
##  3 MA          37 Lose    
##  4 ME          37 Lose    
##  5 UT          38 Win     
##  6 WI          39 Win     
##  7 ND          42 Win     
##  8 VT          42 Lose    
##  9 NE          43 Win     
## 10 CT          44 Lose    
## # … with 40 more rows

Teen_vec <- FullData %>% pull(TeenPreg)
mean(Teen_vec)

## [1] 54.7

I selected for CivilWar status, TrumpWin, and state to get a more clear idea if the opinions held in the state have been relatively stable other past century and a half. Some line up while others don’t. I renamed Teen to TeenPreg to make it a more clear variable. I also compared my two main variables by increasing teen pregnancy rate to see a more clear picture of the data. I pulled Teen Pregnancy as a vector to get the mean.

FullData <- FullData %>% mutate(TeenPer = (TeenPreg/1000) * 100)
FullData <- FullData %>% mutate(income_pctile = ntile(Income, 
    100))
FullData %>% arrange(desc(income_pctile))

## # A tibble: 50 x 12
##    Church TeenPreg CivilWar State Income    HS    BA   Adv Dem.Rep TrumpWin
##     <int>    <int> <chr>    <fct>  <int> <dbl> <dbl> <dbl>   <int> <chr>   
##  1     31       57 U        MD     74551  89.4  37.9  17.3      15 Lose    
##  2     26       64 O        AK     72515  92.1  28    10.1     -17 Win     
##  3     30       51 U        NJ     72093  88.6  36.8  14        10 Lose    
##  4     25       44 U        CT     70331  89.9  37.6  16.6      11 Lose    
##  5     25       65 O        HI     69515  91    30.8  10.5      21 Lose    
##  6     22       37 U        MA     68563  89.8  40.5  17.7      19 Lose    
##  7     20       28 U        NH     66779  92.3  34.9  13        -9 Lose    
##  8     35       48 C        VA     65015  88.3  36.3  15.4      -2 Lose    
##  9     28       59 U        CA     61818  81.8  31.4  11.6      16 Lose    
## 10     31       36 U        MN     61492  92.4  33.7  11.2       1 Lose    
## # … with 40 more rows, and 2 more variables: TeenPer <dbl>, income_pctile <int>
…
